{
    "key": "group_5bedc58665b94",
    "title": "Fields: Button Color — To Clone",
    "fields": [
        {
            "key": "field_5bedc58cbf4a1",
            "label": "Button Color",
            "name": "button_color",
            "type": "select",
            "instructions": "btn-default : Default\r\nbtn-white : White\r\nbtn-info : Info\r\nbtn-success : Success\r\nbtn-primary : Primary\r\nbtn-warning : Warning\r\nbtn-danger : Danger\r\nbtn-rose : Rose",
            "required": 0,
            "conditional_logic": 0,
            "wrapper": {
                "width": "",
                "class": "",
                "id": ""
            },
            "choices": {
                "btn-default": "Default"
            },
            "default_value": [],
            "allow_null": 0,
            "multiple": 0,
            "ui": 0,
            "return_format": "value",
            "ajax": 0,
            "placeholder": ""
        }
    ],
    "location": [
        [
            {
                "param": "post_type",
                "operator": "==",
                "value": "post"
            }
        ]
    ],
    "menu_order": 0,
    "position": "normal",
    "style": "default",
    "label_placement": "top",
    "instruction_placement": "label",
    "hide_on_screen": "",
    "active": 0,
    "description": "",
    "modified": 1543943528
}